{
  "warnings": [
    {
      "file": "/Users/omarhussainyoco/Work/Adeva/Yoco/Projects/yoco-payment-sdk-ios-ui/YocoSDK/Classes/Listeners/PrinterListener.swift",
      "line": 10,
      "symbol": "PrinterListener",
      "symbol_kind": "source.lang.swift.decl.class",
      "warning": "undocumented"
    },
    {
      "file": "/Users/omarhussainyoco/Work/Adeva/Yoco/Projects/yoco-payment-sdk-ios-ui/YocoSDK/Classes/Listeners/PrinterListener.swift",
      "line": 12,
      "symbol": "PrinterListener.onPrintFinished(printResult:)",
      "symbol_kind": "source.lang.swift.decl.function.method.instance",
      "warning": "undocumented"
    },
    {
      "file": "/Users/omarhussainyoco/Work/Adeva/Yoco/Projects/yoco-payment-sdk-ios-ui/YocoSDK/Classes/Listeners/PrinterListener.swift",
      "line": 16,
      "symbol": "PrinterListener.onPrinterStatusChanged(printerStatus:)",
      "symbol_kind": "source.lang.swift.decl.function.method.instance",
      "warning": "undocumented"
    },
    {
      "file": "/Users/omarhussainyoco/Work/Adeva/Yoco/Projects/yoco-payment-sdk-ios-ui/YocoSDK/Classes/Models/PaymentResult.swift",
      "line": 1,
      "symbol": "PaymentResult",
      "symbol_kind": "source.lang.swift.decl.struct",
      "warning": "undocumented"
    },
    {
      "file": "/Users/omarhussainyoco/Work/Adeva/Yoco/Projects/yoco-payment-sdk-ios-ui/YocoSDK/Classes/Models/PaymentResult.swift",
      "line": 27,
      "symbol": "PaymentLookupResultError",
      "symbol_kind": "source.lang.swift.decl.struct",
      "warning": "undocumented"
    },
    {
      "file": "/Users/omarhussainyoco/Work/Adeva/Yoco/Projects/yoco-payment-sdk-ios-ui/YocoSDK/Classes/Models/PaymentResult.swift",
      "line": 32,
      "symbol": "PaymentLookupResultNotFound",
      "symbol_kind": "source.lang.swift.decl.struct",
      "warning": "undocumented"
    },
    {
      "file": "/Users/omarhussainyoco/Work/Adeva/Yoco/Projects/yoco-payment-sdk-ios-ui/YocoSDK/Classes/Models/Printing/MerchantInfo.swift",
      "line": 31,
      "symbol": "MerchantInfo.init(merchantId:merchantName:phone:address:)",
      "symbol_kind": "source.lang.swift.decl.function.method.instance",
      "warning": "undocumented"
    },
    {
      "file": "/Users/omarhussainyoco/Work/Adeva/Yoco/Projects/yoco-payment-sdk-ios-ui/YocoSDK/Classes/Models/Printing/PrintRequest.swift",
      "line": 11,
      "symbol": "PrintRequest",
      "symbol_kind": "source.lang.swift.decl.struct",
      "warning": "undocumented"
    },
    {
      "file": "/Users/omarhussainyoco/Work/Adeva/Yoco/Projects/yoco-payment-sdk-ios-ui/YocoSDK/Classes/Models/Printing/PrintRequest.swift",
      "line": 49,
      "symbol": "PrintRequest.init(printRequestId:clientTransactionId:printerConfig:receiptInfo:merchantInfo:transactionType:receiptType:signature:metadata:)",
      "symbol_kind": "source.lang.swift.decl.function.method.instance",
      "warning": "undocumented"
    },
    {
      "file": "/Users/omarhussainyoco/Work/Adeva/Yoco/Projects/yoco-payment-sdk-ios-ui/YocoSDK/Classes/Models/Printing/PrintResult.swift",
      "line": 27,
      "symbol": "PrintResult.init(printRequest:completed:errorMessage:)",
      "symbol_kind": "source.lang.swift.decl.function.method.instance",
      "warning": "undocumented"
    },
    {
      "file": "/Users/omarhussainyoco/Work/Adeva/Yoco/Projects/yoco-payment-sdk-ios-ui/YocoSDK/Classes/Models/Printing/PrinterConfig.swift",
      "line": 15,
      "symbol": "PrinterConfig.receiptType",
      "symbol_kind": "source.lang.swift.decl.var.instance",
      "warning": "undocumented"
    },
    {
      "file": "/Users/omarhussainyoco/Work/Adeva/Yoco/Projects/yoco-payment-sdk-ios-ui/YocoSDK/Classes/Models/Printing/PrinterConfig.swift",
      "line": 16,
      "symbol": "PrinterConfig.autoPrint",
      "symbol_kind": "source.lang.swift.decl.var.instance",
      "warning": "undocumented"
    },
    {
      "file": "/Users/omarhussainyoco/Work/Adeva/Yoco/Projects/yoco-payment-sdk-ios-ui/YocoSDK/Classes/Models/Printing/PrinterConfig.swift",
      "line": 17,
      "symbol": "PrinterConfig.settingsAction",
      "symbol_kind": "source.lang.swift.decl.var.instance",
      "warning": "undocumented"
    },
    {
      "file": "/Users/omarhussainyoco/Work/Adeva/Yoco/Projects/yoco-payment-sdk-ios-ui/YocoSDK/Classes/Models/Printing/PrinterConfig.swift",
      "line": 18,
      "symbol": "PrinterConfig.settingsRequestCode",
      "symbol_kind": "source.lang.swift.decl.var.instance",
      "warning": "undocumented"
    },
    {
      "file": "/Users/omarhussainyoco/Work/Adeva/Yoco/Projects/yoco-payment-sdk-ios-ui/YocoSDK/Classes/Models/Printing/PrinterConfig.swift",
      "line": 20,
      "symbol": "PrinterConfig.init(receiptType:autoPrint:settingsAction:settingsRequestCode:)",
      "symbol_kind": "source.lang.swift.decl.function.method.instance",
      "warning": "undocumented"
    },
    {
      "file": "/Users/omarhussainyoco/Work/Adeva/Yoco/Projects/yoco-payment-sdk-ios-ui/YocoSDK/Classes/Models/Printing/PrinterStatus.swift",
      "line": 9,
      "symbol": "PrinterStatus",
      "symbol_kind": "source.lang.swift.decl.enum",
      "warning": "undocumented"
    },
    {
      "file": "/Users/omarhussainyoco/Work/Adeva/Yoco/Projects/yoco-payment-sdk-ios-ui/YocoSDK/Classes/Models/Printing/PrinterStatus.swift",
      "line": 10,
      "symbol": "PrinterStatus.Busy",
      "symbol_kind": "source.lang.swift.decl.enumelement",
      "warning": "undocumented"
    },
    {
      "file": "/Users/omarhussainyoco/Work/Adeva/Yoco/Projects/yoco-payment-sdk-ios-ui/YocoSDK/Classes/Models/Printing/PrinterStatus.swift",
      "line": 11,
      "symbol": "PrinterStatus.Ready",
      "symbol_kind": "source.lang.swift.decl.enumelement",
      "warning": "undocumented"
    },
    {
      "file": "/Users/omarhussainyoco/Work/Adeva/Yoco/Projects/yoco-payment-sdk-ios-ui/YocoSDK/Classes/Models/Printing/PrinterStatus.swift",
      "line": 12,
      "symbol": "PrinterStatus.Faulty",
      "symbol_kind": "source.lang.swift.decl.enumelement",
      "warning": "undocumented"
    },
    {
      "file": "/Users/omarhussainyoco/Work/Adeva/Yoco/Projects/yoco-payment-sdk-ios-ui/YocoSDK/Classes/Models/Printing/PrinterStatus.swift",
      "line": 13,
      "symbol": "PrinterStatus.Unknown",
      "symbol_kind": "source.lang.swift.decl.enumelement",
      "warning": "undocumented"
    },
    {
      "file": "/Users/omarhussainyoco/Work/Adeva/Yoco/Projects/yoco-payment-sdk-ios-ui/YocoSDK/Classes/Models/Printing/PrinterStatus.swift",
      "line": 14,
      "symbol": "PrinterStatus.Printing",
      "symbol_kind": "source.lang.swift.decl.enumelement",
      "warning": "undocumented"
    },
    {
      "file": "/Users/omarhussainyoco/Work/Adeva/Yoco/Projects/yoco-payment-sdk-ios-ui/YocoSDK/Classes/Models/Printing/PrinterStatus.swift",
      "line": 15,
      "symbol": "PrinterStatus.NoDevice",
      "symbol_kind": "source.lang.swift.decl.enumelement",
      "warning": "undocumented"
    },
    {
      "file": "/Users/omarhussainyoco/Work/Adeva/Yoco/Projects/yoco-payment-sdk-ios-ui/YocoSDK/Classes/Models/Printing/PrinterStatus.swift",
      "line": 16,
      "symbol": "PrinterStatus.OutOfPaper",
      "symbol_kind": "source.lang.swift.decl.enumelement",
      "warning": "undocumented"
    },
    {
      "file": "/Users/omarhussainyoco/Work/Adeva/Yoco/Projects/yoco-payment-sdk-ios-ui/YocoSDK/Classes/Models/Printing/PrinterStatus.swift",
      "line": 17,
      "symbol": "PrinterStatus.OverHeating",
      "symbol_kind": "source.lang.swift.decl.enumelement",
      "warning": "undocumented"
    },
    {
      "file": "/Users/omarhussainyoco/Work/Adeva/Yoco/Projects/yoco-payment-sdk-ios-ui/YocoSDK/Classes/Models/Printing/PrinterStatus.swift",
      "line": 18,
      "symbol": "PrinterStatus.CheckingStatus",
      "symbol_kind": "source.lang.swift.decl.enumelement",
      "warning": "undocumented"
    },
    {
      "file": "/Users/omarhussainyoco/Work/Adeva/Yoco/Projects/yoco-payment-sdk-ios-ui/YocoSDK/Classes/Models/Printing/PrinterStatus.swift",
      "line": 19,
      "symbol": "PrinterStatus.PrintRequested",
      "symbol_kind": "source.lang.swift.decl.enumelement",
      "warning": "undocumented"
    },
    {
      "file": "/Users/omarhussainyoco/Work/Adeva/Yoco/Projects/yoco-payment-sdk-ios-ui/YocoSDK/Classes/Models/Printing/PrinterStatus.swift",
      "line": 20,
      "symbol": "PrinterStatus.PrintingComplete",
      "symbol_kind": "source.lang.swift.decl.enumelement",
      "warning": "undocumented"
    },
    {
      "file": "/Users/omarhussainyoco/Work/Adeva/Yoco/Projects/yoco-payment-sdk-ios-ui/YocoSDK/Classes/Models/Printing/PrinterStatus.swift",
      "line": 21,
      "symbol": "PrinterStatus.OtherError(_:)",
      "symbol_kind": "source.lang.swift.decl.enumelement",
      "warning": "undocumented"
    },
    {
      "file": "/Users/omarhussainyoco/Work/Adeva/Yoco/Projects/yoco-payment-sdk-ios-ui/YocoSDK/Classes/Models/Printing/YocoTransactionType.swift",
      "line": 11,
      "symbol": "YocoTransactionType",
      "symbol_kind": "source.lang.swift.decl.enum",
      "warning": "undocumented"
    },
    {
      "file": "/Users/omarhussainyoco/Work/Adeva/Yoco/Projects/yoco-payment-sdk-ios-ui/YocoSDK/Classes/Models/Printing/YocoTransactionType.swift",
      "line": 12,
      "symbol": "YocoTransactionType.GOODS",
      "symbol_kind": "source.lang.swift.decl.enumelement",
      "warning": "undocumented"
    },
    {
      "file": "/Users/omarhussainyoco/Work/Adeva/Yoco/Projects/yoco-payment-sdk-ios-ui/YocoSDK/Classes/Models/Printing/YocoTransactionType.swift",
      "line": 13,
      "symbol": "YocoTransactionType.REFUND",
      "symbol_kind": "source.lang.swift.decl.enumelement",
      "warning": "undocumented"
    },
    {
      "file": "/Users/omarhussainyoco/Work/Adeva/Yoco/Projects/yoco-payment-sdk-ios-ui/YocoSDK/Classes/Models/StaffMember.swift",
      "line": 1,
      "symbol": "YocoStaff",
      "symbol_kind": "source.lang.swift.decl.struct",
      "warning": "undocumented"
    },
    {
      "file": "/Users/omarhussainyoco/Work/Adeva/Yoco/Projects/yoco-payment-sdk-ios-ui/YocoSDK/Classes/Public Interface/Enums.swift",
      "line": 1,
      "symbol": "SupportedCurrency",
      "symbol_kind": "source.lang.swift.decl.enum",
      "warning": "undocumented"
    },
    {
      "file": "/Users/omarhussainyoco/Work/Adeva/Yoco/Projects/yoco-payment-sdk-ios-ui/YocoSDK/Classes/Public Interface/Enums.swift",
      "line": 2,
      "symbol": "SupportedCurrency.mur",
      "symbol_kind": "source.lang.swift.decl.enumelement",
      "warning": "undocumented"
    },
    {
      "file": "/Users/omarhussainyoco/Work/Adeva/Yoco/Projects/yoco-payment-sdk-ios-ui/YocoSDK/Classes/Public Interface/Enums.swift",
      "line": 3,
      "symbol": "SupportedCurrency.zar",
      "symbol_kind": "source.lang.swift.decl.enumelement",
      "warning": "undocumented"
    },
    {
      "file": "/Users/omarhussainyoco/Work/Adeva/Yoco/Projects/yoco-payment-sdk-ios-ui/YocoSDK/Classes/Public Interface/Enums.swift",
      "line": 35,
      "symbol": "FlowType",
      "symbol_kind": "source.lang.swift.decl.enum",
      "warning": "undocumented"
    },
    {
      "file": "/Users/omarhussainyoco/Work/Adeva/Yoco/Projects/yoco-payment-sdk-ios-ui/YocoSDK/Classes/Public Interface/Enums.swift",
      "line": 36,
      "symbol": "FlowType.unknown",
      "symbol_kind": "source.lang.swift.decl.enumelement",
      "warning": "undocumented"
    },
    {
      "file": "/Users/omarhussainyoco/Work/Adeva/Yoco/Projects/yoco-payment-sdk-ios-ui/YocoSDK/Classes/Public Interface/Enums.swift",
      "line": 37,
      "symbol": "FlowType.charge",
      "symbol_kind": "source.lang.swift.decl.enumelement",
      "warning": "undocumented"
    },
    {
      "file": "/Users/omarhussainyoco/Work/Adeva/Yoco/Projects/yoco-payment-sdk-ios-ui/YocoSDK/Classes/Public Interface/Enums.swift",
      "line": 38,
      "symbol": "FlowType.refund",
      "symbol_kind": "source.lang.swift.decl.enumelement",
      "warning": "undocumented"
    },
    {
      "file": "/Users/omarhussainyoco/Work/Adeva/Yoco/Projects/yoco-payment-sdk-ios-ui/YocoSDK/Classes/Public Interface/Enums.swift",
      "line": 39,
      "symbol": "FlowType.print",
      "symbol_kind": "source.lang.swift.decl.enumelement",
      "warning": "undocumented"
    },
    {
      "file": "/Users/omarhussainyoco/Work/Adeva/Yoco/Projects/yoco-payment-sdk-ios-ui/YocoSDK/Classes/Public Interface/Enums.swift",
      "line": 42,
      "symbol": "YocoPaymentType",
      "symbol_kind": "source.lang.swift.decl.enum",
      "warning": "undocumented"
    },
    {
      "file": "/Users/omarhussainyoco/Work/Adeva/Yoco/Projects/yoco-payment-sdk-ios-ui/YocoSDK/Classes/Public Interface/Enums.swift",
      "line": 43,
      "symbol": "YocoPaymentType.card",
      "symbol_kind": "source.lang.swift.decl.enumelement",
      "warning": "undocumented"
    },
    {
      "file": "/Users/omarhussainyoco/Work/Adeva/Yoco/Projects/yoco-payment-sdk-ios-ui/YocoSDK/Classes/Public Interface/Enums.swift",
      "line": 44,
      "symbol": "YocoPaymentType.cash",
      "symbol_kind": "source.lang.swift.decl.enumelement",
      "warning": "undocumented"
    },
    {
      "file": "/Users/omarhussainyoco/Work/Adeva/Yoco/Projects/yoco-payment-sdk-ios-ui/YocoSDK/Classes/Public Interface/Enums.swift",
      "line": 45,
      "symbol": "YocoPaymentType.qr",
      "symbol_kind": "source.lang.swift.decl.enumelement",
      "warning": "undocumented"
    },
    {
      "file": "/Users/omarhussainyoco/Work/Adeva/Yoco/Projects/yoco-payment-sdk-ios-ui/YocoSDK/Classes/Public Interface/Enums.swift",
      "line": 69,
      "symbol": "ResultCode",
      "symbol_kind": "source.lang.swift.decl.enum",
      "warning": "undocumented"
    },
    {
      "file": "/Users/omarhussainyoco/Work/Adeva/Yoco/Projects/yoco-payment-sdk-ios-ui/YocoSDK/Classes/Public Interface/Enums.swift",
      "line": 70,
      "symbol": "ResultCode.success",
      "symbol_kind": "source.lang.swift.decl.enumelement",
      "warning": "undocumented"
    },
    {
      "file": "/Users/omarhussainyoco/Work/Adeva/Yoco/Projects/yoco-payment-sdk-ios-ui/YocoSDK/Classes/Public Interface/Enums.swift",
      "line": 71,
      "symbol": "ResultCode.inProgress",
      "symbol_kind": "source.lang.swift.decl.enumelement",
      "warning": "undocumented"
    },
    {
      "file": "/Users/omarhussainyoco/Work/Adeva/Yoco/Projects/yoco-payment-sdk-ios-ui/YocoSDK/Classes/Public Interface/Enums.swift",
      "line": 72,
      "symbol": "ResultCode.failure(_:)",
      "symbol_kind": "source.lang.swift.decl.enumelement",
      "warning": "undocumented"
    },
    {
      "file": "/Users/omarhussainyoco/Work/Adeva/Yoco/Projects/yoco-payment-sdk-ios-ui/YocoSDK/Classes/Public Interface/Enums.swift",
      "line": 73,
      "symbol": "ResultCode.cancelled",
      "symbol_kind": "source.lang.swift.decl.enumelement",
      "warning": "undocumented"
    },
    {
      "file": "/Users/omarhussainyoco/Work/Adeva/Yoco/Projects/yoco-payment-sdk-ios-ui/YocoSDK/Classes/Public Interface/Enums.swift",
      "line": 74,
      "symbol": "ResultCode.permissionDenied",
      "symbol_kind": "source.lang.swift.decl.enumelement",
      "warning": "undocumented"
    },
    {
      "file": "/Users/omarhussainyoco/Work/Adeva/Yoco/Projects/yoco-payment-sdk-ios-ui/YocoSDK/Classes/Public Interface/Enums.swift",
      "line": 75,
      "symbol": "ResultCode.noConnectivity",
      "symbol_kind": "source.lang.swift.decl.enumelement",
      "warning": "undocumented"
    },
    {
      "file": "/Users/omarhussainyoco/Work/Adeva/Yoco/Projects/yoco-payment-sdk-ios-ui/YocoSDK/Classes/Public Interface/Enums.swift",
      "line": 76,
      "symbol": "ResultCode.invalidToken",
      "symbol_kind": "source.lang.swift.decl.enumelement",
      "warning": "undocumented"
    },
    {
      "file": "/Users/omarhussainyoco/Work/Adeva/Yoco/Projects/yoco-payment-sdk-ios-ui/YocoSDK/Classes/Public Interface/Enums.swift",
      "line": 77,
      "symbol": "ResultCode.bluetoothDisabled",
      "symbol_kind": "source.lang.swift.decl.enumelement",
      "warning": "undocumented"
    },
    {
      "file": "/Users/omarhussainyoco/Work/Adeva/Yoco/Projects/yoco-payment-sdk-ios-ui/YocoSDK/Classes/Public Interface/Enums.swift",
      "line": 78,
      "symbol": "ResultCode.cardMachineError",
      "symbol_kind": "source.lang.swift.decl.enumelement",
      "warning": "undocumented"
    },
    {
      "file": "/Users/omarhussainyoco/Work/Adeva/Yoco/Projects/yoco-payment-sdk-ios-ui/YocoSDK/Classes/Public Interface/Enums.swift",
      "line": 79,
      "symbol": "ResultCode.printFailed",
      "symbol_kind": "source.lang.swift.decl.enumelement",
      "warning": "undocumented"
    },
    {
      "file": "/Users/omarhussainyoco/Work/Adeva/Yoco/Projects/yoco-payment-sdk-ios-ui/YocoSDK/Classes/Public Interface/Enums.swift",
      "line": 97,
      "symbol": "Environment",
      "symbol_kind": "source.lang.swift.decl.enum",
      "warning": "undocumented"
    },
    {
      "file": "/Users/omarhussainyoco/Work/Adeva/Yoco/Projects/yoco-payment-sdk-ios-ui/YocoSDK/Classes/Public Interface/Enums.swift",
      "line": 98,
      "symbol": "Environment.production",
      "symbol_kind": "source.lang.swift.decl.enumelement",
      "warning": "undocumented"
    },
    {
      "file": "/Users/omarhussainyoco/Work/Adeva/Yoco/Projects/yoco-payment-sdk-ios-ui/YocoSDK/Classes/Public Interface/Enums.swift",
      "line": 99,
      "symbol": "Environment.staging",
      "symbol_kind": "source.lang.swift.decl.enumelement",
      "warning": "undocumented"
    },
    {
      "file": "/Users/omarhussainyoco/Work/Adeva/Yoco/Projects/yoco-payment-sdk-ios-ui/YocoSDK/Classes/Public Interface/YocoReceiptDelegate.swift",
      "line": 1,
      "symbol": "SupportedReceiptType",
      "symbol_kind": "source.lang.swift.decl.enum",
      "warning": "undocumented"
    },
    {
      "file": "/Users/omarhussainyoco/Work/Adeva/Yoco/Projects/yoco-payment-sdk-ios-ui/YocoSDK/Classes/Public Interface/YocoReceiptDelegate.swift",
      "line": 2,
      "symbol": "SupportedReceiptType.sms",
      "symbol_kind": "source.lang.swift.decl.enumelement",
      "warning": "undocumented"
    },
    {
      "file": "/Users/omarhussainyoco/Work/Adeva/Yoco/Projects/yoco-payment-sdk-ios-ui/YocoSDK/Classes/Public Interface/YocoReceiptDelegate.swift",
      "line": 3,
      "symbol": "SupportedReceiptType.email",
      "symbol_kind": "source.lang.swift.decl.enumelement",
      "warning": "undocumented"
    },
    {
      "file": "/Users/omarhussainyoco/Work/Adeva/Yoco/Projects/yoco-payment-sdk-ios-ui/YocoSDK/Classes/Public Interface/YocoReceiptDelegate.swift",
      "line": 4,
      "symbol": "SupportedReceiptType.print",
      "symbol_kind": "source.lang.swift.decl.enumelement",
      "warning": "undocumented"
    },
    {
      "file": "/Users/omarhussainyoco/Work/Adeva/Yoco/Projects/yoco-payment-sdk-ios-ui/YocoSDK/Classes/Public Interface/YocoReceiptDelegate.swift",
      "line": 7,
      "symbol": "ReceiptCellType",
      "symbol_kind": "source.lang.swift.decl.enum",
      "warning": "undocumented"
    },
    {
      "file": "/Users/omarhussainyoco/Work/Adeva/Yoco/Projects/yoco-payment-sdk-ios-ui/YocoSDK/Classes/Public Interface/YocoReceiptDelegate.swift",
      "line": 8,
      "symbol": "ReceiptCellType.InputCellType",
      "symbol_kind": "source.lang.swift.decl.enumelement",
      "warning": "undocumented"
    },
    {
      "file": "/Users/omarhussainyoco/Work/Adeva/Yoco/Projects/yoco-payment-sdk-ios-ui/YocoSDK/Classes/Public Interface/YocoReceiptDelegate.swift",
      "line": 9,
      "symbol": "ReceiptCellType.TextCellType",
      "symbol_kind": "source.lang.swift.decl.enumelement",
      "warning": "undocumented"
    },
    {
      "file": "/Users/omarhussainyoco/Work/Adeva/Yoco/Projects/yoco-payment-sdk-ios-ui/YocoSDK/Classes/Public Interface/YocoReceiptDelegate.swift",
      "line": 10,
      "symbol": "ReceiptCellType.PrintCellType",
      "symbol_kind": "source.lang.swift.decl.enumelement",
      "warning": "undocumented"
    },
    {
      "file": "/Users/omarhussainyoco/Work/Adeva/Yoco/Projects/yoco-payment-sdk-ios-ui/YocoSDK/Classes/Public Interface/YocoReceiptDelegate.swift",
      "line": 51,
      "symbol": "YocoReceiptDelegate",
      "symbol_kind": "source.lang.swift.decl.protocol",
      "warning": "undocumented"
    },
    {
      "file": "/Users/omarhussainyoco/Work/Adeva/Yoco/Projects/yoco-payment-sdk-ios-ui/YocoSDK/Classes/Public Interface/YocoReceiptDelegate.swift",
      "line": 90,
      "symbol": "YocoReceiptDelegate",
      "symbol_kind": "source.lang.swift.decl.extension",
      "warning": "undocumented"
    },
    {
      "file": "/Users/omarhussainyoco/Work/Adeva/Yoco/Projects/yoco-payment-sdk-ios-ui/YocoSDK/Classes/Public Interface/YocoSDK.swift",
      "line": 33,
      "symbol": "Yoco.setCleanUpCallback(callback:)",
      "symbol_kind": "source.lang.swift.decl.function.method.static",
      "warning": "undocumented"
    },
    {
      "file": "/Users/omarhussainyoco/Work/Adeva/Yoco/Projects/yoco-payment-sdk-ios-ui/YocoSDK/Classes/Public Interface/YocoSDK.swift",
      "line": 530,
      "symbol": "Yoco.isPrinterAvailable(isPrinterAvailableCallback:)",
      "symbol_kind": "source.lang.swift.decl.function.method.static",
      "warning": "undocumented"
    },
    {
      "file": "/Users/omarhussainyoco/Work/Adeva/Yoco/Projects/yoco-payment-sdk-ios-ui/YocoSDK/Classes/Public Interface/YocoSDK.swift",
      "line": 536,
      "symbol": "Yoco.setPrinterConfig(printerConfig:)",
      "symbol_kind": "source.lang.swift.decl.function.method.static",
      "warning": "undocumented"
    },
    {
      "file": "/Users/omarhussainyoco/Work/Adeva/Yoco/Projects/yoco-payment-sdk-ios-ui/YocoSDK/Classes/Webservice/Models/FetchReceiptResponse.swift",
      "line": 13,
      "symbol": "CorePaymentType",
      "symbol_kind": "source.lang.swift.decl.enum",
      "warning": "undocumented"
    },
    {
      "file": "/Users/omarhussainyoco/Work/Adeva/Yoco/Projects/yoco-payment-sdk-ios-ui/YocoSDK/Classes/Webservice/Models/FetchReceiptResponse.swift",
      "line": 14,
      "symbol": "CorePaymentType.charge",
      "symbol_kind": "source.lang.swift.decl.enumelement",
      "warning": "undocumented"
    },
    {
      "file": "/Users/omarhussainyoco/Work/Adeva/Yoco/Projects/yoco-payment-sdk-ios-ui/YocoSDK/Classes/Webservice/Models/FetchReceiptResponse.swift",
      "line": 15,
      "symbol": "CorePaymentType.refund",
      "symbol_kind": "source.lang.swift.decl.enumelement",
      "warning": "undocumented"
    }
  ],
  "source_directory": "/Users/omarhussainyoco/Work/Adeva/Yoco/Projects/yoco-payment-sdk-ios-ui/Example"
}